0.01, 486 
0.03, 632 
0.05, 772 
0.07, 910 
0.09, 1032 
0.11, 996 
0.13, 982 
0.15, 951 
0.17, 834 
0.19, 796 
0.21, 792 
0.23, 540 
0.25, 476 
0.27, 420 
0.29, 399 
0.31, 311 
0.33, 269 
0.35, 222 
0.37, 156 
0.39, 147 
0.41, 86 
0.43, 128 
0.45, 62 
0.47, 34 
0.49, 80 
0.51, 25 
0.53, 55 
0.55, 8 
0.57, 20 
0.59, 13 
0.61, 6 
0.63, 12 
0.65, 12 
0.67, 2 
0.69, 3 
0.71, 3 
0.73, 5 
0.75, 3 
0.77, 2 
0.79, 1 
0.81, 0 
0.83, 1 
0.85, 0 
0.87, 0 
0.89, 0 
0.91, 0 
0.93, 0 
0.95, 0 
0.97, 0 
