0.01, 7 
0.03, 22 
0.05, 27 
0.07, 29 
0.09, 59 
0.11, 53 
0.13, 47 
0.15, 65 
0.17, 64 
0.19, 75 
0.21, 124 
0.23, 111 
0.25, 111 
0.27, 137 
0.29, 164 
0.31, 133 
0.33, 170 
0.35, 161 
0.37, 147 
0.39, 183 
0.41, 169 
0.43, 193 
0.45, 198 
0.47, 108 
0.49, 195 
0.51, 104 
0.53, 162 
0.55, 116 
0.57, 114 
0.59, 81 
0.61, 62 
0.63, 50 
0.65, 51 
0.67, 65 
0.69, 30 
0.71, 38 
0.73, 22 
0.75, 35 
0.77, 15 
0.79, 15 
0.81, 9 
0.83, 6 
0.85, 11 
0.87, 10 
0.89, 6 
0.91, 1 
0.93, 0 
0.95, 5 
0.97, 1 
