0.01, 1 
0.03, 3 
0.05, 1 
0.07, 4 
0.09, 2 
0.11, 3 
0.13, 3 
0.15, 2 
0.17, 3 
0.19, 4 
0.21, 3 
0.23, 6 
0.25, 5 
0.27, 4 
0.29, 9 
0.31, 6 
0.33, 7 
0.35, 2 
0.37, 6 
0.39, 10 
0.41, 4 
0.43, 15 
0.45, 5 
0.47, 10 
0.49, 16 
0.51, 12 
0.53, 29 
0.55, 34 
0.57, 51 
0.59, 42 
0.61, 40 
0.63, 67 
0.65, 61 
0.67, 89 
0.69, 67 
0.71, 121 
0.73, 105 
0.75, 165 
0.77, 187 
0.79, 155 
0.81, 165 
0.83, 148 
0.85, 167 
0.87, 156 
0.89, 128 
0.91, 108 
0.93, 48 
0.95, 110 
0.97, 115 
