Coefficients
159.246022527, 0.812435028493, 0.132733105603

Variance Matrix
34.2824643919,-0.00509150202908,-0.0249941923099,
-0.00509150202908,4.09172830846e-05,1.56935130226e-05,
-0.0249941923099,1.56935130226e-05,5.1216774405e-05,

Gauss Frequencies
0.01, 1.84422776223e-06
0.03, 4.53411998933e-06
0.05, 1.08971081458e-05
0.07, 2.56017299023e-05
0.09, 5.87986236717e-05
0.11, 0.000132009385038
0.13, 0.000289722519886
0.15, 0.000621583529672
0.17, 0.00130363658883
0.19, 0.00267271950204
0.21, 0.00535660993485
0.23, 0.0104946137895
0.25, 0.0200993816933
0.27, 0.0376303911799
0.29, 0.0688707110388
0.31, 0.123216877538
0.33, 0.215499183905
0.35, 0.368434982336
0.37, 0.615766257323
0.39, 1.00602949354
0.41, 1.60673900879
0.43, 2.50853266677
0.45, 3.82854699656
0.47, 5.71199742124
0.49, 8.33070625562
0.51, 11.8772374349
0.53, 16.5534626795
0.55, 22.5528830631
0.57, 30.0368980612
0.59, 39.106404821
0.61, 49.7714738259
0.63, 61.9231312674
0.65, 75.3121620926
0.67, 89.5400063095
0.69, 104.066014918
0.71, 118.233494576
0.73, 131.31427083
0.75, 142.568350644
0.77, 151.312261661
0.79, 156.987444015
0.81, 159.219227658
0.83, 157.857749042
0.85, 152.994598073
0.87, 144.952625756
0.89, 134.250488637
0.91, 121.547340804
0.93, 107.575865055
0.95, 93.0730681818
0.97, 78.7178117883
