\BOOKMARK [0][-]{chapter.1}{pyFRET Tutorial}{}
\BOOKMARK [1][-]{section.1.1}{Installing pyFRET}{chapter.1}
\BOOKMARK [1][-]{section.1.2}{Using pyFRET}{chapter.1}
\BOOKMARK [1][-]{section.1.3}{Using pyFRET.pyFRET}{chapter.1}
\BOOKMARK [1][-]{section.1.4}{Using pyFRET.pyALEX}{chapter.1}
\BOOKMARK [1][-]{section.1.5}{The Sample Data}{chapter.1}
\BOOKMARK [0][-]{chapter.2}{pyFRET Reference}{}
\BOOKMARK [0][-]{chapter.3}{pyALEX Reference}{}
\BOOKMARK [0][-]{chapter.4}{Indices and tables}{}
\BOOKMARK [0][-]{section*.26}{Python Module Index}{}
\BOOKMARK [0][-]{section*.27}{Index}{}
